{
  "review": [
    {
      "zaposleni": "Marija Stefanovic",
      "klijent_ime": "Teodora",
      "klijent_prezime": "Djordjevic",
      "tekst": "Izvanredan maser!",
      "id": 1
    }
  ],
  "masaze": [
    {
      "id": 1,
      "tip": "toplim kamenjem",
      "trajanje": 45,
      "maser_ime": "Marija Stefanovic",
      "klijent_ime": "Miona",
      "klijent_prezime": "Matijevic",
      "dan": "05",
      "mesec": "05",
      "godina": "2018",
      "cena": 1000,
      "vreme": "10:00"
    },
    {
      "id": 2,
      "tip": "regularna",
      "trajanje": 30,
      "maser_ime": "Mihajlo Djordjevic",
      "klijent_ime": "Goran",
      "klijent_prezime": "Gavric",
      "dan": "15",
      "mesec": "04",
      "godina": "2018",
      "cena": 700,
      "vreme": "11:00"
    },
    {
      "id": 3,
      "tip": "sijacu",
      "trajanje": 15,
      "maser_ime": "Petra Stankovic",
      "klijent_ime": "Pavle",
      "klijent_prezime": "Kovacevic",
      "dan": "20",
      "mesec": "04",
      "godina": "2018",
      "cena": 1500,
      "vreme": "12:00"
    },
    {
      "id": 4,
      "tip": "stopala",
      "trajanje": 15,
      "maser_ime": "Stefan Ljubic",
      "klijent_ime": "Ljubica",
      "klijent_prezime": "Stojadinovic",
      "dan": "17",
      "mesec": "04",
      "godina": "2018",
      "cena": 500,
      "vreme": "13:00"
    },
    {
      "id": 5,
      "tip": "toplim kamenjem",
      "trajanje": 60,
      "maser_ime": "Marija Stefanovic",
      "klijent_ime": "Filip",
      "klijent_prezime": "Mihajlovic",
      "dan": "18",
      "mesec": "04",
      "godina": "2018",
      "cena": 1500,
      "vreme": "14:00"
    },
    {
      "id": 6,
      "tip": "regularna",
      "trajanje": 75,
      "maser_ime": "Kostadin Srbinovic",
      "klijent_ime": "Nemanja",
      "klijent_prezime": "Filipovic",
      "dan": "20",
      "mesec": "04",
      "godina": "2018",
      "cena": 2000,
      "vreme": "15:00"
    },
    {
      "id": 7,
      "tip": "regularna",
      "trajanje": 75,
      "maser_ime": "Kostadin Srbinovic",
      "klijent_ime": "Milan",
      "klijent_prezime": "Zoranovic",
      "dan": "25",
      "mesec": "04",
      "godina": "2018",
      "cena": 1000,
      "vreme": "16:00"
    },
    {
      "id": 8,
      "tip": "sijacu",
      "trajanje": 15,
      "maser_ime": "Petra Stankovic",
      "klijent_ime": "Pavle",
      "klijent_prezime": "Kovacevic",
      "dan": "05",
      "mesec": "05",
      "godina": "2018",
      "cena": 1500,
      "vreme": "17:00"
    },
    {
      "id": 9,
      "tip": "stopala",
      "trajanje": 15,
      "maser_ime": "Stefan Ljubic",
      "klijent_ime": "Goran",
      "klijent_prezime": "Jovanovic",
      "dan": "23",
      "mesec": "04",
      "godina": "2018",
      "cena": 1500,
      "vreme": "18:00"
    },
    {
      "tip": "toplim kamenjem",
      "maser_ime": "Petra Stankovic",
      "trajanje": "75",
      "klijent_ime": "Teodora",
      "klijent_prezime": "Djordjevic",
      "dan": "11",
      "mesec": "04",
      "godina": "2018",
      "vreme": "20:00",
      "cena": 1500,
      "id": 10
    },
    {
      "tip": "parcijalna",
      "maser_ime": "Marija Stefanovic",
      "trajanje": "75",
      "klijent_ime": "Marija",
      "klijent_prezime": "Milenovic",
      "dan": "23",
      "mesec": "04",
      "godina": "2018",
      "vreme": "17:00",
      "cena": 1500,
      "id": 11
    },
    {
      "tip": "parcijalna",
      "maser_ime": "Marija Stefanovic",
      "trajanje": "90",
      "klijent_ime": "Konstantin",
      "klijent_prezime": "Rasic",
      "dan": "18",
      "mesec": "05",
      "godina": "2018",
      "vreme": "14:00",
      "cena": 1800,
      "id": 12
    }
  ],
  "treninzi": [
    {
      "id": 1,
      "tip": "kardio",
      "trajanje": 45,
      "trener_ime": "Petar Simonovic",
      "klijent_ime": "Milena",
      "klijent_prezime": "Babic",
      "dan": "17",
      "mesec": "04",
      "godina": "2018",
      "vreme": "21:00",
      "cena": 350
    },
    {
      "id": 2,
      "tip": "grupni",
      "trajanje": 60,
      "trener_ime": "Ksenija Filipovic",
      "klijent_ime": "Nemanja",
      "klijent_prezime": "Zivkovic",
      "dan": "13",
      "mesec": "04",
      "godina": "2018",
      "vreme": "20:00",
      "cena": 250
    },
    {
      "tip": "kardio",
      "trener_ime": "Strahinja Gvozdenovic",
      "trajanje": "30",
      "klijent_ime": "Ksenija",
      "klijent_prezime": "Zdravkovic",
      "dan": "26",
      "mesec": "04",
      "godina": "2018",
      "vreme": "18:00",
      "cena": 600,
      "id": 3
    },
    {
      "id": 4,
      "tip": "grupni",
      "trajanje": 60,
      "trener_ime": "Ksenija Filipovic",
      "klijent_ime": "Jelena",
      "klijent_prezime": "Petrovic",
      "dan": "25",
      "mesec": "04",
      "godina": "2018",
      "vreme": "13:00",
      "cena": 250
    },
    {
      "id": 5,
      "tip": "aerobik",
      "trajanje": 45,
      "trener_ime": "Jovan Majstorovic",
      "klijent_ime": "Snezana",
      "klijent_prezime": "Mavric",
      "dan": "20",
      "mesec": "04",
      "godina": "2018",
      "vreme": "10:00",
      "cena": 800
    },
    {
      "id": 6,
      "tip": "grupni",
      "trajanje": 60,
      "trener_ime": "Ksenija Filipovic",
      "klijent_ime": "Djordje",
      "klijent_prezime": "Lazarevic",
      "dan": "19",
      "mesec": "04",
      "godina": "2018",
      "vreme": "11:00",
      "cena": 250
    },
    {
      "id": 7,
      "tip": "ersonalni",
      "trajanje": 90,
      "trener_ime": "Strahinja Gvozdenovic",
      "klijent_ime": "Milan",
      "klijent_prezime": "Jovanovic",
      "dan": "18",
      "mesec": "04",
      "godina": "2018",
      "vreme": "12:00",
      "cena": 700
    },
    {
      "tip": "kardio",
      "trener_ime": "Ksenija Filipovic",
      "trajanje": "30",
      "klijent_ime": "Simona",
      "klijent_prezime": "Bosancic",
      "dan": "16",
      "mesec": "04",
      "godina": "2018",
      "vreme": "15:00",
      "cena": 600,
      "id": 8
    },
    {
      "id": 9,
      "tip": "kinezis",
      "trajanje": 60,
      "trener_ime": "Sima Obradovic",
      "klijent_ime": "Jovana",
      "klijent_prezime": "Lazarevic",
      "dan": "15",
      "mesec": "04",
      "godina": "2018",
      "vreme": "12:00",
      "cena": 500
    },
    {
      "tip": "grupni",
      "trener_ime": "Jovan Majstorovic",
      "trajanje": "90",
      "klijent_ime": "Teodora",
      "klijent_prezime": "Djordjevic",
      "dan": "12",
      "mesec": "04",
      "godina": "2018",
      "vreme": "20:00",
      "cena": 1800,
      "id": 10
    },
    {
      "tip": "personalni",
      "trener_ime": "Strahinja Gvozdenovic",
      "trajanje": "45",
      "klijent_ime": "Divna",
      "klijent_prezime": "Milic",
      "dan": "20",
      "mesec": "04",
      "godina": "2018",
      "vreme": "15:00",
      "cena": 900,
      "id": 11
    },
    {
      "tip": "personalni",
      "trener_ime": "Ksenija Filipovic",
      "trajanje": "60",
      "klijent_ime": "Dragan",
      "klijent_prezime": "Zivkovic",
      "dan": "20",
      "mesec": "05",
      "godina": "2018",
      "vreme": "12:00",
      "cena": 1200,
      "id": 12
    },
    {
      "tip": "grupni",
      "trener_ime": "Strahinja Gvozdenovic",
      "trajanje": "60",
      "klijent_ime": "Miljan",
      "klijent_prezime": "Manic",
      "dan": "25",
      "mesec": "04",
      "godina": "2018",
      "vreme": "12:00",
      "cena": 1200,
      "id": 13
    },
    {
      "tip": "personalni",
      "trener_ime": "Ksenija Filipovic",
      "trajanje": "45",
      "klijent_ime": "Alo",
      "klijent_prezime": "Bre",
      "dan": "29",
      "mesec": "04",
      "godina": "2018",
      "vreme": "15:00",
      "cena": 900,
      "id": 14
    }
  ],
  "citati": [
    {
      "id": 1,
      "tekst": "Making excuses burns zero calories per hour!"
    },
    {
      "id": 2,
      "tekst": "Sweat is just fat crying!"
    },
    {
      "id": 3,
      "tekst": "Fit is not a destination it's a way of life!"
    },
    {
      "id": 4,
      "tekst": "A change may be just around the corner!"
    },
    {
      "id": 5,
      "tekst": "If you change the way you look at things, the things you look at change!"
    },
    {
      "id": 6,
      "tekst": "The best way to predict future is to create it!"
    },
    {
      "id": 7,
      "tekst": "Don't wish a good body work for it!"
    },
    {
      "id": 8,
      "tekst": "Do something today that your future self will thank you for!"
    },
    {
      "id": 9,
      "tekst": "Hustle for that muscle!"
    },
    {
      "id": 10,
      "tekst": "You're only one workout away from a good mood!"
    }
  ],
  "vezbe": {
    "ledja": [
      {
        "id": 1,
        "trajanje": 1,
        "naziv": "Upright row",
        "ponavljaji": 10
      },
      {
        "id": 2,
        "trajanje": 1,
        "naziv": "Bent-over row",
        "ponavljaji": 10
      },
      {
        "id": 3,
        "trajanje": 1,
        "naziv": "Seated row",
        "ponavljaji": 10
      },
      {
        "id": 4,
        "trajanje": 2,
        "naziv": "Back extension",
        "ponavljaji": 15
      },
      {
        "id": 5,
        "trajanje": 4,
        "naziv": "Lat pulldown",
        "ponavljaji": 20
      }
    ],
    "grudi": [
      {
        "id": 1,
        "trajanje": 3,
        "naziv": "Chest press",
        "ponavljaji": 20
      },
      {
        "id": 2,
        "trajanje": 3,
        "naziv": "Chest fly",
        "ponavljaji": 20
      },
      {
        "id": 3,
        "trajanje": 2,
        "naziv": "Pullover",
        "ponavljaji": 15
      },
      {
        "id": 4,
        "trajanje": 2,
        "naziv": "Deadlift",
        "ponavljaji": 15
      },
      {
        "id": 5,
        "trajanje": 1,
        "naziv": "Push ups",
        "ponavljaji": 10
      }
    ],
    "ramena": [
      {
        "id": 1,
        "trajanje": 1,
        "naziv": "Seated rear lateral raise",
        "ponavljaji": 10
      },
      {
        "id": 2,
        "trajanje": 1,
        "naziv": "Cable external rotation",
        "ponavljaji": 10
      },
      {
        "id": 3,
        "trajanje": 1,
        "naziv": "Bent arm lateral rise",
        "ponavljaji": 10
      },
      {
        "id": 4,
        "trajanje": 2,
        "naziv": "Lateral raise",
        "ponavljaji": 15
      },
      {
        "id": 5,
        "trajanje": 2,
        "naziv": "Scaption",
        "ponavljaji": 15
      }
    ],
    "stomak": [
      {
        "id": 1,
        "trajanje": 5,
        "naziv": "Roll ups",
        "ponavljaji": 30
      },
      {
        "id": 2,
        "trajanje": 5,
        "naziv": "Pulse ups",
        "ponavljaji": 30
      },
      {
        "id": 3,
        "trajanje": 5,
        "naziv": "Crunches",
        "ponavljaji": 30
      },
      {
        "id": 4,
        "trajanje": 1,
        "naziv": "Plank",
        "ponavljaji": 1
      },
      {
        "id": 5,
        "trajanje": 3,
        "naziv": "Straight leg raise",
        "ponavljaji": 20
      }
    ],
    "gluteus": [
      {
        "id": 1,
        "trajanje": 1,
        "naziv": "Jumping jacks",
        "ponavljaji": 20
      },
      {
        "id": 2,
        "trajanje": 2,
        "naziv": "Lunges",
        "ponavljaji": 20
      },
      {
        "id": 3,
        "trajanje": 2,
        "naziv": "Squats",
        "ponavljaji": 15
      },
      {
        "id": 4,
        "trajanje": 3,
        "naziv": "Donkey kicks",
        "ponavljaji": 30
      },
      {
        "id": 5,
        "trajanje": 2,
        "naziv": "Romanian deadlift",
        "ponavljaji": 15
      }
    ],
    "ruke": [
      {
        "id": 1,
        "trajanje": 2,
        "naziv": "Biceps curls",
        "ponavljaji": 20
      },
      {
        "id": 2,
        "trajanje": 2,
        "naziv": "Hammer curls",
        "ponavljaji": 20
      },
      {
        "id": 3,
        "trajanje": 2,
        "naziv": "Dips",
        "ponavljaji": 15
      },
      {
        "id": 4,
        "trajanje": 4,
        "naziv": "Cable push down",
        "ponavljaji": 30
      },
      {
        "id": 5,
        "trajanje": 2,
        "naziv": "Kickbacks",
        "ponavljaji": 15
      }
    ],
    "usloza": [
      {
        "id": 1,
        "trajanje": 3,
        "naziv": "Side legs raises",
        "ponavljaji": 30
      },
      {
        "id": 2,
        "trajanje": 3,
        "naziv": "Leg extensions",
        "ponavljaji": 30
      },
      {
        "id": 3,
        "trajanje": 2,
        "naziv": "Side plank leg raise",
        "ponavljaji": 20
      },
      {
        "id": 4,
        "trajanje": 3,
        "naziv": "Lateral lunges",
        "ponavljaji": 20
      },
      {
        "id": 5,
        "trajanje": 2,
        "naziv": "Sumo squats",
        "ponavljaji": 15
      }
    ],
    "pzloza": [
      {
        "id": 1,
        "trajanje": 2,
        "naziv": "Front kicks",
        "ponavljaji": 20
      },
      {
        "id": 2,
        "trajanje": 1,
        "naziv": "Bicycle buffer",
        "ponavljaji": 15
      },
      {
        "id": 3,
        "trajanje": 2,
        "naziv": "Get-lean lift",
        "ponavljaji": 30
      },
      {
        "id": 4,
        "trajanje": 2,
        "naziv": "Wall whittler",
        "ponavljaji": 15
      },
      {
        "id": 5,
        "trajanje": 3,
        "naziv": "Ballet leg lift",
        "ponavljaji": 20
      }
    ]
  },
  "zaposleni": [
    {
      "id": 1,
      "ime": "Marija Stefanovic"
    },
    {
      "id": 2,
      "ime": "Mihajlo Djordjevic"
    },
    {
      "id": 3,
      "ime": "Petra Stankovic"
    },
    {
      "id": 4,
      "ime": "Kostadin Srbinovic"
    },
    {
      "id": 5,
      "ime": "Stefan Ljubic"
    },
    {
      "id": 6,
      "ime": "Petar Simonovic"
    },
    {
      "id": 7,
      "ime": "Ksenija Filipovic"
    },
    {
      "id": 8,
      "ime": "Strahinja Gvozdenovic"
    },
    {
      "id": 9,
      "ime": "Jovan Majstorovic"
    },
    {
      "id": 10,
      "ime": "Sima Obradovic"
    }
  ]
}