{
  "masaze": [
    {
      "id": 2,
      "tip": "toplim kamenjem",
      "trajanje": 45,
      "maser_ime": "Marija Stefanovic",
      "klijent_ime": "Miona",
      "klijent_prezime": "Matijevic",
      "dan": 5,
      "mesec": 5,
      "godina": 2018,
      "cena": 1000,
      "vreme": "10:00"
    },
    {
      "id": 3,
      "tip": "regularna",
      "trajanje": 30,
      "maser_ime": "Mihajlo Djordjevic",
      "klijent_ime": "Goran",
      "klijent_prezime": "Gavric",
      "dan": 6,
      "mesec": 5,
      "godina": 2018,
      "cena": 700,
      "vreme": "11:00"
    },
    {
      "id": 4,
      "tip": "sijacu",
      "trajanje": 15,
      "maser_ime": "Petra Stankovic",
      "klijent_ime": "Pavle",
      "klijent_prezime": "Kovacevic",
      "dan": 8,
      "mesec": 6,
      "godina": 2018,
      "cena": 1500,
      "vreme": "12:00"
    },
    {
      "id": 5,
      "tip": "stopala",
      "trajanje": 15,
      "maser_ime": "Stefan Ljubic",
      "klijent_ime": "Ljubica",
      "klijent_prezime": "Stojadinovic",
      "dan": 9,
      "mesec": 6,
      "godina": 2018,
      "cena": 500,
      "vreme": "13:00"
    },
    {
      "id": 6,
      "tip": "toplim kamenjem",
      "trajanje": 60,
      "maser_ime": "Marija Stefanovic",
      "klijent_ime": "Filip",
      "klijent_prezime": "Mihajlovic",
      "dan": 6,
      "mesec": 8,
      "godina": 2018,
      "cena": 1500,
      "vreme": "14:00"
    },
    {
      "id": 7,
      "tip": "regularna",
      "trajanje": 75,
      "maser_ime": "Kostadin Srbinovic",
      "klijent_ime": "Nemanja",
      "klijent_prezime": "Filipovic",
      "dan": 17,
      "mesec": 8,
      "godina": 2018,
      "cena": 2000,
      "vreme": "15:00"
    },
    {
      "id": 8,
      "tip": "regularna",
      "trajanje": 75,
      "maser_ime": "Kostadin Srbinovic",
      "klijent_ime": "Milan",
      "klijent_prezime": "Zoranovic",
      "dan": 6,
      "mesec": 7,
      "godina": 2018,
      "cena": 1000,
      "vreme": "16:00"
    },
    {
      "id": 9,
      "tip": "sijacu",
      "trajanje": 15,
      "maser_ime": "Petra Stankovic",
      "klijent_ime": "Pavle",
      "klijent_prezime": "Kovacevic",
      "dan": 8,
      "mesec": 8,
      "godina": 2018,
      "cena": 1500,
      "vreme": "17:00"
    },
    {
      "id": 10,
      "tip": "stopala",
      "trajanje": 15,
      "maser_ime": "Stefan Ljubic",
      "klijent_ime": "Goran",
      "klijent_prezime": "Jovanovic",
      "dan": 9,
      "mesec": 9,
      "godina": 2018,
      "cena": 1500,
      "vreme": "18:00"
    },
    {
      "tip": "sijacu",
      "maser_ime": "Petra Stankovic",
      "trajanje": "60",
      "klijent_ime": "Teodora",
      "klijent_prezime": "Djordjevic",
      "dan": "11",
      "mesec": "04",
      "godina": "2018",
      "vreme": "20:00",
      "cena": 1200,
      "id": 12
    }
  ],
  "treninzi": [
    {
      "id": 1,
      "tip": "Kardio",
      "trajanje": 45,
      "trener_ime": "Petar Simonovic",
      "klijent_ime": "Milena",
      "klijent_prezime": "Babic",
      "dan": 2,
      "mesec": 4,
      "godina": 2018,
      "cena": 350
    },
    {
      "id": 2,
      "tip": "Grupni",
      "trajanje": 60,
      "trener_ime": "Ksenija Filipovic",
      "klijent_ime": "Nemanja",
      "klijent_prezime": "Zivkovic",
      "dan": 3,
      "mesec": 5,
      "godina": 2018,
      "cena": 250
    },
    {
      "id": 3,
      "tip": "Kardio",
      "trajanje": 45,
      "trener_ime": "Petar Simonovic",
      "klijent_ime": "Ksenija",
      "klijent_prezime": "Zdravkovic",
      "dan": 2,
      "mesec": 4,
      "godina": 2018,
      "cena": 350
    },
    {
      "id": 4,
      "tip": "Personalni",
      "trajanje": 90,
      "trener_ime": "Strahinja Gvozdenovic",
      "klijent_ime": "Milan",
      "klijent_prezime": "Jovanovic",
      "dan": 6,
      "mesec": 6,
      "godina": 2018,
      "cena": 700
    },
    {
      "id": 5,
      "tip": "Grupni",
      "trajanje": 60,
      "trener_ime": "Ksenija Filipovic",
      "klijent_ime": "Jelena",
      "klijent_prezime": "Petrovic",
      "dan": 3,
      "mesec": 5,
      "godina": 2018,
      "cena": 250
    },
    {
      "id": 6,
      "tip": "Aerobik",
      "trajanje": 45,
      "trener_ime": "Jovan Majstorovic",
      "klijent_ime": "Snezana",
      "klijent_prezime": "Mavric",
      "dan": 5,
      "mesec": 4,
      "godina": 2018,
      "cena": 800
    },
    {
      "id": 7,
      "tip": "Grupni",
      "trajanje": 60,
      "trener_ime": "Ksenija Filipovic",
      "klijent_ime": "Djordje",
      "klijent_prezime": "Lazarevic",
      "dan": 3,
      "mesec": 5,
      "godina": 2018,
      "cena": 250
    },
    {
      "id": 8,
      "tip": "Personalni",
      "trajanje": 90,
      "trener_ime": "Strahinja Gvozdenovic",
      "klijent_ime": "Milan",
      "klijent_prezime": "Jovanovic",
      "dan": 13,
      "mesec": 7,
      "godina": 2018,
      "cena": 700
    },
    {
      "id": 9,
      "tip": "Kinezis",
      "trajanje": 60,
      "trener_ime": "Sima Obradovic",
      "klijent_ime": "Simona",
      "klijent_prezime": "Bosancic",
      "dan": 17,
      "mesec": 5,
      "godina": 2018,
      "cena": 500
    },
    {
      "id": 10,
      "tip": "Kinezis",
      "trajanje": 60,
      "trener_ime": "Sima Obradovic",
      "klijent_ime": "Jovana",
      "klijent_prezime": "Lazarevic",
      "dan": 17,
      "mesec": 5,
      "godina": 2018,
      "cena": 500
    }
  ],
  "treneri": [
    {
      "id": 1,
      "ime": "Petar Simonovic",
      "plata": 25000,
      "dan_rodj": 5,
      "mesec_rodj": 9,
      "godina-rodj": 1990
    },
    {
      "id": 2,
      "ime": "Ksenija Filipovic",
      "plata": 23000,
      "dan_rodj": 17,
      "mesec_rodj": 8,
      "godina-rodj": 1991
    },
    {
      "id": 3,
      "ime": "Strahinja Gvozdenovic",
      "plata": 50000,
      "dan_rodj": 15,
      "mesec_rodj": 3,
      "godina-rodj": 1980
    },
    {
      "id": 4,
      "ime": "Jovan Majstorovic",
      "plata": 75000,
      "dan_rodj": 7,
      "mesec_rodj": 8,
      "godina-rodj": 1989
    },
    {
      "id": 5,
      "ime": "Sima Obradovic",
      "plata": 33000,
      "dan_rodj": 22,
      "mesec_rodj": 6,
      "godina-rodj": 1985
    }
  ],
  "maseri": [
    {
      "id": 1,
      "ime": "Mihajlo Djordjevic",
      "plata": 30000,
      "dan_rodj": 15,
      "mesec_rodj": 3,
      "godina_rodj": 1965
    },
    {
      "id": 2,
      "ime": "Marija Stefanovic",
      "plata": 33000,
      "dan_rodj": 16,
      "mesec_rodj": 8,
      "godina_rodj": 1980
    },
    {
      "id": 3,
      "ime": "Petra Stankovic",
      "plata": 65000,
      "dan_rodj": 21,
      "mesec_rodj": 7,
      "godina_rodj": 1990
    },
    {
      "id": 4,
      "ime": "Stefan Ljubic",
      "plata": 45000,
      "dan_rodj": 22,
      "mesec_rodj": 12,
      "godina_rodj": 1990
    },
    {
      "id": 5,
      "ime": "Kostadin Srbinovic",
      "plata": 45000,
      "dan_rodj": 3,
      "mesec_rodj": 6,
      "godina_rodj": 1959
    }
  ]
}