{
  "log": [
    {
      "user": "trajko",
      "admin": "false",
      "id": 1
    }
  ],
  "admini": [
    {
      "username": "teks",
      "password": "teks",
      "id": 1
    }
  ],
  "titule": [
    {
      "id": 1,
      "naziv": "PocetnoPivo",
      "poeni": 0
    },
    {
      "id": 2,
      "naziv": "SaljiviSampanjac",
      "poeni": 10
    },
    {
      "id": 3,
      "naziv": "MiniMartini",
      "poeni": 20
    },
    {
      "id": 4,
      "naziv": "VotkaStotka",
      "poeni": 30
    },
    {
      "id": 5,
      "naziv": "TeskaTekila",
      "poeni": 40
    },
    {
      "id": 6,
      "naziv": "KlasicniKozmo",
      "poeni": 50
    },
    {
      "id": 7,
      "naziv": "VjestiViski",
      "poeni": 60
    },
    {
      "id": 8,
      "naziv": "DivljiDajkiri",
      "poeni": 70
    },
    {
      "id": 9,
      "naziv": "MajstorMargarite",
      "poeni": 80
    },
    {
      "id": 10,
      "naziv": "KraljKoktela",
      "poeni": 100
    }
  ],
  "utisci": [
    {
      "utisak": "Uzasno objasnjeno!",
      "vreme": "22",
      "username": "mirko",
      "tezina": "tesko",
      "koktel": "Uncle Angelo's eggnog",
      "tip": "bourbon",
      "id": 1
    },
    {
      "username": "trajko",
      "utisak": "Fenomenalan koktel!",
      "vreme": "15",
      "tezina": "srednje",
      "koktel": "Sex on the beach",
      "tip": "vodka",
      "id": 2
    },
    {
      "username": "trajko",
      "utisak": "Neadekvatno objasnjenje.. Nisam uspeo da ga napravim kao sto uputstvo kaze :(",
      "vreme": "30",
      "tezina": "srednje",
      "koktel": "Strawberry daiquiri",
      "tip": "daiquiri",
      "id": 3
    },
    {
      "username": "trajko",
      "utisak": "Bljak koktel ...",
      "vreme": "45",
      "tezina": "tesko",
      "koktel": "Uncle Angelo's eggnog",
      "tip": "bourbon",
      "id": 7
    },
    {
      "username": "trajko",
      "utisak": "Prelep koktel!!!",
      "vreme": "10",
      "tezina": "lako",
      "koktel": "Daiquiri",
      "tip": "daiquiri",
      "id": 8
    },
    {
      "username": "trajko",
      "utisak": "Izvanredno objasnjen nacin pripreme!",
      "vreme": "15",
      "tezina": "srednje",
      "koktel": "Bourbon rickey",
      "tip": "bourbon",
      "id": 9
    },
    {
      "username": "trajko",
      "utisak": "Ne svidja mi se ovaj koktel, zazalio sam sto sam ga uopste probao! Ne preporucujem..",
      "vreme": "15",
      "tezina": "srednje",
      "koktel": "Brown Derby",
      "tip": "bourbon",
      "id": 10
    },
    {
      "username": "bajko",
      "utisak": "Odusevljen sam!",
      "vreme": "5",
      "tezina": "srednje",
      "koktel": "Mango brava daiquiri",
      "tip": "daiquiri",
      "id": 11
    },
    {
      "utisak": "Ocekivao sam vise od ovog koktela..",
      "vreme": "12",
      "username": "mirko",
      "tezina": "lako",
      "koktel": "Manhattan",
      "tip": "manhattan",
      "id": 12
    },
    {
      "username": "bajko",
      "utisak": "Moj omiljeni :)",
      "vreme": "12",
      "tezina": "lako",
      "koktel": "Cosmopolitan",
      "tip": "vodka",
      "id": 13
    }
  ],
  "clanci": [
    {
      "sadrzaj": "U Nisu je juce odrzan peti po redu KoktelFest. Bilo je preko 10.000 posetioca, sto iz Srbije, sto iz drugih zemalja. Svi su uzivali u ovoj impozantnoj veceri gde su kokteli pravljeni od strane najvecih koktel majstora, a mogao je da ih degustira svaki posetilac. Za najpopularniji koktel ovogodisnjeg KoktelFesta odabran je Strawberry Daiquiri. Do sledece godine ;)",
      "naslov": "KoktelFest",
      "id": 1,
      "datum": "20.05.2018"
    },
    {
      "sadrzaj": "U Nisu je juce odrzan peti po redu KoktelFest. Bilo je preko 10.000 posetioca, sto iz Srbije, sto iz drugih zemalja. Svi su uzivali u ovoj impozantnoj veceri gde su kokteli pravljeni od strane najvecih koktel majstora, a mogao je da ih degustira svaki posetilac. Za najpopularniji koktel ovogodisnjeg KoktelFesta odabran je Strawberry Daiquiri. Do sledece godine ;)",
      "naslov": "KoktelFest",
      "id": 2,
      "datum": "20.05.2018"
    },
    {
      "sadrzaj": "U Nisu je juce odrzan peti po redu KoktelFest. Bilo je preko 10.000 posetioca, sto iz Srbije, sto iz drugih zemalja. Svi su uzivali u ovoj impozantnoj veceri gde su kokteli pravljeni od strane najvecih koktel majstora, a mogao je da ih degustira svaki posetilac. Za najpopularniji koktel ovogodisnjeg KoktelFesta odabran je Strawberry Daiquiri. Do sledece godine ;)",
      "naslov": "KoktelFest",
      "id": 3,
      "datum": "20.05.2018"
    },
    {
      "sadrzaj": "U Nisu je juce odrzan peti po redu KoktelFest. Bilo je preko 10.000 posetioca, sto iz Srbije, sto iz drugih zemalja. Svi su uzivali u ovoj impozantnoj veceri gde su kokteli pravljeni od strane najvecih koktel majstora, a mogao je da ih degustira svaki posetilac. Za najpopularniji koktel ovogodisnjeg KoktelFesta odabran je Strawberry Daiquiri. Do sledece godine ;)",
      "naslov": "KoktelFest",
      "id": 4,
      "datum": "20.05.2018"
    },
    {
      "sadrzaj": "U Nisu je juce odrzan peti po redu KoktelFest. Bilo je preko 10.000 posetioca, sto iz Srbije, sto iz drugih zemalja. Svi su uzivali u ovoj impozantnoj veceri gde su kokteli pravljeni od strane najvecih koktel majstora, a mogao je da ih degustira svaki posetilac. Za najpopularniji koktel ovogodisnjeg KoktelFesta odabran je Strawberry Daiquiri. Do sledece godine ;)",
      "naslov": "KoktelFest",
      "id": 5,
      "datum": "20.05.2018"
    },
    {
      "sadrzaj": "U Nisu je juce odrzan peti po redu KoktelFest. Bilo je preko 10.000 posetioca, sto iz Srbije, sto iz drugih zemalja. Svi su uzivali u ovoj impozantnoj veceri gde su kokteli pravljeni od strane najvecih koktel majstora, a mogao je da ih degustira svaki posetilac. Za najpopularniji koktel ovogodisnjeg KoktelFesta odabran je Strawberry Daiquiri. Do sledece godine ;)",
      "naslov": "KoktelFest",
      "id": 6,
      "datum": "20.05.2018"
    },
    {
      "sadrzaj": "U Nisu je juce odrzan peti po redu KoktelFest. Bilo je preko 10.000 posetioca, sto iz Srbije, sto iz drugih zemalja. Svi su uzivali u ovoj impozantnoj veceri gde su kokteli pravljeni od strane najvecih koktel majstora, a mogao je da ih degustira svaki posetilac. Za najpopularniji koktel ovogodisnjeg KoktelFesta odabran je Strawberry Daiquiri. Do sledece godine ;)",
      "naslov": "KoktelFest",
      "id": 7,
      "datum": "20.05.2018"
    },
    {
      "sadrzaj": "U Nisu je juce odrzan peti po redu KoktelFest. Bilo je preko 10.000 posetioca, sto iz Srbije, sto iz drugih zemalja. Svi su uzivali u ovoj impozantnoj veceri gde su kokteli pravljeni od strane najvecih koktel majstora, a mogao je da ih degustira svaki posetilac. Za najpopularniji koktel ovogodisnjeg KoktelFesta odabran je Strawberry Daiquiri. Do sledece godine ;)",
      "naslov": "KoktelFest",
      "id": 8,
      "datum": "20.05.2018"
    },
    {
      "sadrzaj": "U Nisu je juce odrzan peti po redu KoktelFest. Bilo je preko 10.000 posetioca, sto iz Srbije, sto iz drugih zemalja. Svi su uzivali u ovoj impozantnoj veceri gde su kokteli pravljeni od strane najvecih koktel majstora, a mogao je da ih degustira svaki posetilac. Za najpopularniji koktel ovogodisnjeg KoktelFesta odabran je Strawberry Daiquiri. Do sledece godine ;)",
      "naslov": "KoktelFest",
      "id": 9,
      "datum": "20.05.2018"
    },
    {
      "sadrzaj": "U Nisu je juce odrzan peti po redu KoktelFest. Bilo je preko 10.000 posetioca, sto iz Srbije, sto iz drugih zemalja. Svi su uzivali u ovoj impozantnoj veceri gde su kokteli pravljeni od strane najvecih koktel majstora, a mogao je da ih degustira svaki posetilac. Za najpopularniji koktel ovogodisnjeg KoktelFesta odabran je Strawberry Daiquiri. Do sledece godine ;)",
      "naslov": "KoktelFest",
      "id": 10,
      "datum": "20.05.2018"
    },
    {
      "sadrzaj": "U Nisu je juce odrzan peti po redu KoktelFest. Bilo je preko 10.000 posetioca, sto iz Srbije, sto iz drugih zemalja. Svi su uzivali u ovoj impozantnoj veceri gde su kokteli pravljeni od strane najvecih koktel majstora, a mogao je da ih degustira svaki posetilac. Za najpopularniji koktel ovogodisnjeg KoktelFesta odabran je Strawberry Daiquiri. Do sledece godine ;)",
      "naslov": "KoktelFest",
      "id": 11,
      "datum": "20.05.2018"
    },
    {
      "sadrzaj": "U Nisu je juce odrzan peti po redu KoktelFest. Bilo je preko 10.000 posetioca, sto iz Srbije, sto iz drugih zemalja. Svi su uzivali u ovoj impozantnoj veceri gde su kokteli pravljeni od strane najvecih koktel majstora, a mogao je da ih degustira svaki posetilac. Za najpopularniji koktel ovogodisnjeg KoktelFesta odabran je Strawberry Daiquiri. Do sledece godine ;)",
      "naslov": "KoktelFest",
      "id": 12,
      "datum": "20.05.2018"
    },
    {
      "sadrzaj": "U Nisu je juce odrzan peti po redu KoktelFest. Bilo je preko 10.000 posetioca, sto iz Srbije, sto iz drugih zemalja. Svi su uzivali u ovoj impozantnoj veceri gde su kokteli pravljeni od strane najvecih koktel majstora, a mogao je da ih degustira svaki posetilac. Za najpopularniji koktel ovogodisnjeg KoktelFesta odabran je Strawberry Daiquiri. Do sledece godine ;)",
      "naslov": "KoktelFest",
      "id": 13,
      "datum": "20.05.2018"
    },
    {
      "sadrzaj": "U Nisu je juce odrzan peti po redu KoktelFest. Bilo je preko 10.000 posetioca, sto iz Srbije, sto iz drugih zemalja. Svi su uzivali u ovoj impozantnoj veceri gde su kokteli pravljeni od strane najvecih koktel majstora, a mogao je da ih degustira svaki posetilac. Za najpopularniji koktel ovogodisnjeg KoktelFesta odabran je Strawberry Daiquiri. Do sledece godine ;)",
      "naslov": "KoktelFest",
      "id": 14,
      "datum": "20.05.2018"
    },
    {
      "sadrzaj": "U Nisu je juce odrzan peti po redu KoktelFest. Bilo je preko 10.000 posetioca, sto iz Srbije, sto iz drugih zemalja. Svi su uzivali u ovoj impozantnoj veceri gde su kokteli pravljeni od strane najvecih koktel majstora, a mogao je da ih degustira svaki posetilac. Za najpopularniji koktel ovogodisnjeg KoktelFesta odabran je Strawberry Daiquiri. Do sledece godine ;)",
      "naslov": "KoktelFest",
      "id": 15,
      "datum": "20.05.2018"
    },
    {
      "sadrzaj": "U Nisu je juce odrzan peti po redu KoktelFest. Bilo je preko 10.000 posetioca, sto iz Srbije, sto iz drugih zemalja. Svi su uzivali u ovoj impozantnoj veceri gde su kokteli pravljeni od strane najvecih koktel majstora, a mogao je da ih degustira svaki posetilac. Za najpopularniji koktel ovogodisnjeg KoktelFesta odabran je Strawberry Daiquiri. Do sledece godine ;)",
      "naslov": "KoktelFest",
      "id": 16,
      "datum": "20.05.2018"
    },
    {
      "sadrzaj": "U Nisu je juce odrzan peti po redu KoktelFest. Bilo je preko 10.000 posetioca, sto iz Srbije, sto iz drugih zemalja. Svi su uzivali u ovoj impozantnoj veceri gde su kokteli pravljeni od strane najvecih koktel majstora, a mogao je da ih degustira svaki posetilac. Za najpopularniji koktel ovogodisnjeg KoktelFesta odabran je Strawberry Daiquiri. Do sledece godine ;)",
      "naslov": "KoktelFest",
      "id": 17,
      "datum": "20.05.2018"
    }
  ],
  "korisnici": [
    {
      "username": "trajko",
      "password": "trajko",
      "ime": "Trajko",
      "prezime": "Trajkic",
      "godine": 20,
      "mail": "trajko@gmail.com",
      "id": 1,
      "brojPoena": 0
    },
    {
      "username": "rajko",
      "password": "rajko",
      "ime": "Rajko",
      "prezime": "Rajkovic",
      "godine": 20,
      "mail": "rajko@gmail.com",
      "id": 2,
      "brojPoena": 0
    },
    {
      "username": "bajko",
      "password": "bajko",
      "ime": "Bajko",
      "prezime": "Bajkovic",
      "godine": 20,
      "mail": "bajko@gmail.com",
      "id": 3,
      "brojPoena": 0
    },
    {
      "username": "cajko",
      "password": "cajko",
      "ime": "Cajko",
      "prezime": "Cajkic",
      "godine": 20,
      "mail": "cajko@gmail.com",
      "id": 4,
      "brojPoena": 0
    },
    {
      "ime": "Teodora",
      "prezime": "Djordjevic",
      "godine": "22",
      "username": "teodorislava",
      "mail": "teodoradjordjevic@live.com",
      "password": "mancester",
      "id": 5
    },
    {
      "ime": "Mirko",
      "prezime": "Pesic",
      "godine": "23",
      "username": "mirko",
      "mail": "mirko@gmail.com",
      "password": "mirko",
      "id": 6,
      "brojPoena": 0
    },
    {
      "ime": "Teodora",
      "prezime": "Djordjevic",
      "godine": "25",
      "username": "teksic",
      "mail": "teodoradjordjevic@live.com",
      "password": "teksic",
      "id": 7
    },
    {
      "ime": "Slavica",
      "prezime": "Misic",
      "godine": "23",
      "username": "slavce",
      "mail": "slavce@gmail.com",
      "password": "slavce",
      "id": 8
    },
    {
      "ime": "Viktor",
      "prezime": "Simic",
      "godine": "27",
      "username": "viks",
      "mail": "viks@gmail.com",
      "password": "viks",
      "id": 9,
      "brojPoena": 0
    },
    {
      "ime": "Tijana",
      "prezime": "Markovic",
      "godine": "30",
      "username": "tiki",
      "mail": "tiki@gmail.com",
      "password": "tiki",
      "id": 10
    },
    {
      "ime": "Filip",
      "prezime": "Filic",
      "godine": "54",
      "username": "file",
      "mail": "file@live.com",
      "password": "file",
      "id": 11,
      "brojPoena": 0
    },
    {
      "ime": "Ivan",
      "prezime": "Arsic",
      "godine": "29",
      "username": "arsa",
      "mail": "arsa@yahoo.com",
      "password": "arsa",
      "id": 12,
      "brojPoena": 0
    },
    {
      "ime": "a",
      "prezime": "a",
      "godine": "22",
      "username": "a",
      "mail": "a@gmail.com",
      "password": "a",
      "id": 13,
      "brojPoena": 0
    },
    {
      "ime": "Milan",
      "prezime": "Radic",
      "godine": "35",
      "username": "mixa",
      "mail": "mixa@gmail.com",
      "password": "mixa",
      "id": 14,
      "brojPoena": 0
    }
  ],
  "martini": [
    {
      "id": 1,
      "img": "https://cdn.liquor.com/wp-content/uploads/2013/08/Dry-Martini.jpg",
      "naziv": "Dry Martini",
      "rejting": 2.3,
      "tezina": "lako",
      "tip": "martini",
      "koraci": [
        {
          "opis": "Pripremiti sve neophodne sastojke",
          "vreme": 30
        },
        {
          "opis": "Staviti sve sastojke i led u casu.",
          "vreme": 10
        },
        {
          "opis": "Mesati dok ne postane veoma hladno i sipati u ohladjenu casu.",
          "vreme": 30
        },
        {
          "opis": "Ukrasiti limunovom korom",
          "vreme": 50
        }
      ],
      "vreme_pripreme": 3,
      "sastojci": [
        {
          "kolicina": "2 1⁄2 oz",
          "ime": "Dzin"
        },
        {
          "kolicina": "1⁄2 oz",
          "ime": "Suvi vermut"
        },
        {
          "kolicina": "malo",
          "ime": "Biter od narandze"
        }
      ],
      "broj_koraka": 4,
      "tip_case": "koktel"
    },
    {
      "id": 2,
      "naziv": "Summer martini",
      "img": "https://cdn.liquor.com/wp-content/uploads/2017/08/01102857/summer-720x720.png",
      "rejting": 3.8,
      "tezina": "lako",
      "tip": "martini",
      "koraci": [
        {
          "opis": "Pripremiti sve neophodne sastojke",
          "vreme": 30
        },
        {
          "opis": "Staviti oba sastojka u casu za mesanje i ispuniti ledom.",
          "vreme": 10
        },
        {
          "opis": "Mesati dok ne bude veoma ohladjeno i sipati u martini casu.",
          "vreme": 30
        },
        {
          "opis": "Ukrasiti malinom i kupinom.",
          "vreme": 15
        }
      ],
      "vreme_pripreme": 2,
      "sastojci": [
        {
          "kolicina": "3 oz",
          "ime": "Letnji Dzin"
        },
        {
          "kolicina": "1 oz",
          "ime": "Suvi vermut"
        },
        {
          "kolicina": "1 komad",
          "ime": "Malina"
        },
        {
          "kolicina": "1 komad",
          "ime": "Kupina"
        }
      ],
      "broj_koraka": 4,
      "tip_case": "martini"
    },
    {
      "id": 3,
      "naziv": "Dirty martini",
      "img": "https://cdn.liquor.com/wp-content/uploads/2011/04/15150034/dirty-martini-720x720-recipe.jpg",
      "rejting": 3.9,
      "tezina": "srednje",
      "tip": "martini",
      "koraci": [
        {
          "opis": "Pripremiti sve neophodne sastojke",
          "vreme": 30
        },
        {
          "opis": "Staviti oba sastojka u casu za mesanje i ispuniti ledom.",
          "vreme": 10
        },
        {
          "opis": "Mesati dok ne bude veoma ohladjeno i sipati u martini casu.",
          "vreme": 30
        },
        {
          "opis": "Ukrasiti dvema maslinama.",
          "vreme": 15
        }
      ],
      "vreme_pripreme": 2,
      "sastojci": [
        {
          "kolicina": "2 1⁄2 oz",
          "ime": "Dzin ili vodka"
        },
        {
          "kolicina": "1⁄2 oz",
          "ime": "Suvi vermut"
        },
        {
          "kolicina": "1⁄2 oz",
          "ime": "Rastvor od maslina"
        },
        {
          "kolicina": "2",
          "ime": "Maslina"
        }
      ],
      "broj_koraka": 4,
      "tip_case": "koktel"
    }
  ],
  "manhattan": [
    {
      "id": 2,
      "naziv": "Pearl Manhattan",
      "img": "https://cdn.liquor.com/wp-content/uploads/2012/01/07143358/perfect-pearl-manhattan.jpg",
      "rejting": 3.8,
      "tezina": "lako",
      "tip": "manhattan",
      "koraci": [
        {
          "opis": "Pripremiti sve neophodne sastojke",
          "vreme": 30
        },
        {
          "opis": "Politi koktelsku casu Viskijem i skloniti sa strane.",
          "vreme": 18
        },
        {
          "opis": "Dodati ostale sastojke u sejker i napuniti ledom.",
          "vreme": 20
        },
        {
          "opis": "Mesati dok nije ohladjeno i sipati u pripremljenu casu.",
          "vreme": 40
        }
      ],
      "vreme_pripreme": 3,
      "sastojci": [
        {
          "kolicina": "2 oz",
          "ime": "Bulleit burbon"
        },
        {
          "kolicina": "1 oz",
          "ime": "Dolin suvi vermut"
        },
        {
          "kolicina": "1⁄2 oz ",
          "ime": "Dolin Rouge vermut"
        },
        {
          "kolicina": "20 ml",
          "ime": "Lagavulin 16 godina star viski"
        },
        {
          "kolicina": "malo",
          "ime": "Regans biter od narandze"
        }
      ],
      "broj_koraka": 4,
      "tip_case": "koktel"
    },
    {
      "id": 1,
      "naziv": "Manhattan",
      "img": "https://cdn.liquor.com/wp-content/uploads/2018/05/10144903/Manhattan-720x720-recipe.jpg",
      "rejting": 3.2,
      "tezina": "lako",
      "tip": "manhattan",
      "koraci": [
        {
          "opis": "Pripremiti sve neophodne sastojke",
          "vreme": 30
        },
        {
          "opis": "Staviti sve sastojke i led u casu i mesati.",
          "vreme": 15
        },
        {
          "opis": "Sipati u ohladjenu casu.",
          "vreme": 10
        },
        {
          "opis": "Ukrasiti visnjom",
          "vreme": 20
        }
      ],
      "vreme_pripreme": 3,
      "sastojci": [
        {
          "kolicina": "2 oz",
          "ime": "Viski od razi"
        },
        {
          "kolicina": "1 oz",
          "ime": "Sladak vermut"
        },
        {
          "kolicina": "5 kapi",
          "ime": "Angostura biter"
        },
        {
          "kolicina": "1 kom",
          "ime": "tresnja"
        }
      ],
      "broj_koraka": 4,
      "tip_case": "koktel"
    },
    {
      "id": 3,
      "naziv": "Distrito federal AKA Tequila Manhattan",
      "img": "https://cdn.liquor.com/wp-content/uploads/2013/04/Distrito-Federal.jpg",
      "rejting": 4.1,
      "tezina": "lako",
      "tip": "manhattan",
      "koraci": [
        {
          "opis": "Pripremiti sve neophodne sastojke",
          "vreme": 30
        },
        {
          "opis": "Staviti sve sastojke u sejker i napuniti ledom.",
          "vreme": 15
        },
        {
          "opis": "Mesati i sipati u ohladjenu casu.",
          "vreme": 30
        },
        {
          "opis": "Ukrasiti uvijenom korom limete ili visnjom",
          "vreme": 20
        }
      ],
      "vreme_pripreme": 3,
      "sastojci": [
        {
          "kolicina": "2 oz",
          "ime": "Reposado tekila"
        },
        {
          "kolicina": "1 oz",
          "ime": "Sladak vermut"
        },
        {
          "kolicina": "mala",
          "ime": "Biter od narandze"
        },
        {
          "kolicina": "1 kom",
          "ime": "Kora limete ili visnja"
        }
      ],
      "broj_koraka": 4,
      "tip_case": "koktel"
    }
  ],
  "daiquiri": [
    {
      "id": 2,
      "naziv": "Mango brava daiquiri",
      "img": "https://cdn.liquor.com/wp-content/uploads/2013/03/30153638/Mango-Brava-Daiquiri.jpg",
      "rejting": 4.5,
      "tezina": "srednje",
      "tip": "daiquiri",
      "koraci": [
        {
          "opis": "Pripremiti sve neophodne sastojke",
          "vreme": 30
        },
        {
          "opis": "Staviti sve sastojke u sejker sa ledom.",
          "vreme": 10
        },
        {
          "opis": "Mesati i sipati u ohladjenu casu.",
          "vreme": 30
        },
        {
          "opis": "Ukrasiti uvijenom krugom limete.",
          "vreme": 20
        }
      ],
      "vreme_pripreme": 3,
      "sastojci": [
        {
          "kolicina": "2 oz",
          "ime": "Mango rum"
        },
        {
          "kolicina": "1⁄2 oz",
          "ime": "Svez sok od limete"
        },
        {
          "kolicina": "1⁄2 oz",
          "ime": "Secerni sirup"
        },
        {
          "kolicina": "1 kom",
          "ime": "Krug od limete"
        }
      ],
      "broj_koraka": 4,
      "tip_case": "koktel"
    },
    {
      "id": 1,
      "naziv": "Daiquiri",
      "img": "https://cdn.liquor.com/wp-content/uploads/2018/04/23143458/daiquiri-720x720-recipe.jpg",
      "rejting": 3.6,
      "tezina": "lako",
      "tip": "daiquiri",
      "koraci": [
        {
          "opis": "Pripremiti sve neophodne sastojke",
          "vreme": 30
        },
        {
          "opis": "Staviti sve sastojke u sejker sa ledom i muckati dok nije dobro ohladjeno.",
          "vreme": 30
        },
        {
          "opis": "Sipati u ohladjenu casu.",
          "vreme": 10
        },
        {
          "opis": "Ukrasiti uvijenom korom limete.",
          "vreme": 30
        }
      ],
      "vreme_pripreme": 3,
      "sastojci": [
        {
          "kolicina": "2 oz",
          "ime": "Rum"
        },
        {
          "kolicina": "3⁄4 oz",
          "ime": "Svez sok od limete"
        },
        {
          "kolicina": "3⁄4 oz",
          "ime": "Demerara secerni sirup"
        },
        {
          "kolicina": "1 kom",
          "ime": "Kora limete"
        }
      ],
      "broj_koraka": 4,
      "tip_case": "kupasta casa"
    },
    {
      "id": 3,
      "naziv": "Strawberry daiquiri",
      "img": "https://cdn.liquor.com/wp-content/uploads/2011/01/01170006/strawberry-daiquiri.jpg",
      "rejting": 4.2,
      "tezina": "srednje",
      "tip": "daiquiri",
      "koraci": [
        {
          "opis": "Pripremiti sve neophodne sastojke",
          "vreme": 30
        },
        {
          "opis": "Staviti sve sastojke u blender.",
          "vreme": 15
        },
        {
          "opis": "Blendovati dok se ne dobije ujednacena masa.",
          "vreme": 40
        },
        {
          "opis": "Sipati u margarita casu.",
          "vreme": 15
        },
        {
          "opis": "Ukrasiti koktelskim kisobranom.",
          "vreme": 15
        }
      ],
      "vreme_pripreme": 3,
      "sastojci": [
        {
          "kolicina": "1 1⁄2 oz",
          "ime": "Puertorikanski rum"
        },
        {
          "kolicina": "3⁄4 oz",
          "ime": "Svez sok od limete"
        },
        {
          "kolicina": "1 oz",
          "ime": "Secerni sirup"
        },
        {
          "kolicina": "1 kom",
          "ime": "Jagoda"
        },
        {
          "kolicina": "6 kom",
          "ime": "Kockice leda"
        }
      ],
      "broj_koraka": 5,
      "tip_case": "margarita casa"
    }
  ],
  "vodka": [
    {
      "id": 1,
      "naziv": "Gypsy Queen",
      "img": "https://cdn.liquor.com/wp-content/uploads/2012/06/gypsy-queen.jpg",
      "rejting": 3.7,
      "tezina": "lako",
      "tip": "vodka",
      "koraci": [
        {
          "opis": "Pripremiti sve neophodne sastojke",
          "vreme": 30
        },
        {
          "opis": "Staviti sve sastojke u sejker i napuniti razbijenim ledom.",
          "vreme": 15
        },
        {
          "opis": "Mesati i sipati u ohladjenu koktel casu.",
          "vreme": 40
        },
        {
          "opis": "Iseci tanku koru limuna i ukrasiti koktel.",
          "vreme": 25
        }
      ],
      "vreme_pripreme": 3,
      "sastojci": [
        {
          "kolicina": "2 oz",
          "ime": "Ruska vodka"
        },
        {
          "kolicina": "1 oz",
          "ime": "Benedictine"
        },
        {
          "kolicina": "malo",
          "ime": "Angostura biter"
        },
        {
          "kolicina": "1 kom",
          "ime": "Limunova kora"
        }
      ],
      "broj_koraka": 4,
      "tip_case": "koktel"
    },
    {
      "id": 2,
      "naziv": "Harvey Wallbanger",
      "img": "https://cdn.liquor.com/wp-content/uploads/2012/07/21144236/harvey-wallbanger1.jpg",
      "rejting": 3.1,
      "tezina": "tesko",
      "tip": "vodka",
      "koraci": [
        {
          "opis": "Pripremiti sve neophodne sastojke",
          "vreme": 30
        },
        {
          "opis": "Dodati vodku i sok od narandze u visoku casu napunjenu ledom.",
          "vreme": 15
        },
        {
          "opis": "Mesati i sipati u visoku casu.",
          "vreme": 40
        },
        {
          "opis": "Dodati Galliano na vrh case(treba da pluta)",
          "vreme": 20
        },
        {
          "opis": "Ukrasiti kriskom narandze.",
          "vreme": 20
        }
      ],
      "vreme_pripreme": 4,
      "sastojci": [
        {
          "kolicina": "1 1⁄4 oz",
          "ime": "Vodka"
        },
        {
          "kolicina": "3 oz",
          "ime": "Sok od narandze"
        }
      ],
      "broj_koraka": 5,
      "tip_case": "visoka casa"
    },
    {
      "id": 4,
      "naziv": "Sex on the beach",
      "img": "https://cdn.liquor.com/wp-content/uploads/2017/09/01105701/sex-on-the-beach-720x720-Molly.jpeg",
      "rejting": 4.2,
      "tezina": "srednje",
      "tip": "vodka",
      "koraci": [
        {
          "opis": "Pripremiti sve neophodne sastojke",
          "vreme": 30
        },
        {
          "opis": "Dodati sve sastojke u sejker i napuniti vodom.",
          "vreme": 20
        },
        {
          "opis": "Mesati i sipati u visoku casu napunjenu svezim ledom.",
          "vreme": 40
        },
        {
          "opis": "Ukrasiti korom od narandze.",
          "vreme": 20
        }
      ],
      "vreme_pripreme": 3,
      "sastojci": [
        {
          "kolicina": "1 1⁄2 oz",
          "ime": "Vodka"
        },
        {
          "kolicina": "1⁄2 oz",
          "ime": "Scnapps od breskve"
        },
        {
          "kolicina": "1 1⁄2 oz",
          "ime": "Sok od narandze ili ananasa"
        },
        {
          "kolicina": "1 1⁄2 oz",
          "ime": "Sok od brusnice"
        },
        {
          "kolicina": "1⁄2 oz",
          "ime": "Chambord (opciono)"
        },
        {
          "kolicina": "1 kom",
          "ime": "Krug od narandze"
        }
      ],
      "broj_koraka": 4,
      "tip_case": "visoka casa"
    },
    {
      "id": 3,
      "naziv": "Screwdriver",
      "img": "https://cdn.liquor.com/wp-content/uploads/2017/11/06162348/screwdrvier-720x720-recipe.jpg",
      "rejting": 3.4,
      "tezina": "lako",
      "tip": "vodka",
      "koraci": [
        {
          "opis": "Pripremiti sve neophodne sastojke",
          "vreme": 30
        },
        {
          "opis": "Dodati vodku u visoku casu napunjenu ledom.",
          "vreme": 15
        },
        {
          "opis": "Sipati preko sok od narandze.",
          "vreme": 20
        }
      ],
      "vreme_pripreme": 4,
      "sastojci": [
        {
          "kolicina": "1 1⁄2 oz",
          "ime": "Vodka"
        },
        {
          "kolicina": "3 oz",
          "ime": "Sok od narandze"
        }
      ],
      "broj_koraka": 3,
      "tip_case": "visoka casa"
    },
    {
      "id": 5,
      "naziv": "Cosmopolitan",
      "img": "https://cdn.liquor.com/wp-content/uploads/2017/11/06100445/cosmopolitan-720x720-recipe.jpg",
      "rejting": 3.6,
      "tezina": "lako",
      "tip": "vodka",
      "koraci": [
        {
          "opis": "Pripremiti sve neophodne sastojke",
          "vreme": 30
        },
        {
          "opis": "Dodati vodku u visoku casu napunjenu ledom.",
          "vreme": 15
        },
        {
          "opis": "Mesati i sipati u ohladjenu koktel casu.",
          "vreme": 40
        },
        {
          "opis": "Ukrasiti korom limete.",
          "vreme": 20
        }
      ],
      "vreme_pripreme": 3,
      "sastojci": [
        {
          "kolicina": "1 1⁄2 oz",
          "ime": "Citrus vodka"
        },
        {
          "kolicina": "1⁄2 oz",
          "ime": "Sok od limete"
        },
        {
          "kolicina": "1 oz",
          "ime": "Cointreau"
        },
        {
          "kolicina": "malo",
          "ime": "Sok od brusnice"
        },
        {
          "kolicina": "1 kom",
          "ime": "Kora limete"
        }
      ],
      "broj_koraka": 4,
      "tip_case": "koktel"
    }
  ],
  "bourbon": [
    {
      "id": 1,
      "naziv": "Bourbon rickey",
      "img": "https://cdn.liquor.com/wp-content/uploads/2013/09/Bourbon-Rickey.jpg",
      "rejting": 3.9,
      "tezina": "srednje",
      "tip": "bourbon",
      "koraci": [
        {
          "opis": "Pripremiti sve neophodne sastojke",
          "vreme": 30
        },
        {
          "opis": "Napuniti visoku casu razbijenim ledom.",
          "vreme": 20
        },
        {
          "opis": "Iscediti polovinu limete u casu i sipati u casu.",
          "vreme": 30
        },
        {
          "opis": "Dodati burbon i napuniti kiselom vodom.",
          "vreme": 30
        },
        {
          "opis": "Mesati kratko da se sjedini.",
          "vreme": 30
        }
      ],
      "vreme_pripreme": 4,
      "sastojci": [
        {
          "kolicina": "1 1⁄2 oz ",
          "ime": "Burbon"
        },
        {
          "kolicina": "1 polovina",
          "ime": "Limeta"
        },
        {
          "kolicina": "200 ml",
          "ime": "Kisela voda"
        }
      ],
      "broj_koraka": 5,
      "tip_case": "visoka casa"
    },
    {
      "id": 2,
      "naziv": "Brown Derby",
      "img": "https://cdn.liquor.com/wp-content/uploads/2013/09/recipe-1.jpg",
      "rejting": 4,
      "tezina": "srednje",
      "tip": "bourbon",
      "koraci": [
        {
          "opis": "Pripremiti sve neophodne sastojke",
          "vreme": 30
        },
        {
          "opis": "Dodaj sve sastojke u sejker i napuniti ledom.",
          "vreme": 20
        },
        {
          "opis": "Mesati i sipati u koktel casu.",
          "vreme": 30
        },
        {
          "opis": "Ukrasiti korom od grejpfruta.",
          "vreme": 30
        }
      ],
      "vreme_pripreme": 3,
      "sastojci": [
        {
          "kolicina": "1 1⁄2 oz",
          "ime": "Burbon"
        },
        {
          "kolicina": "1 oz",
          "ime": "Svezi sok od grejpfruta"
        },
        {
          "kolicina": "1⁄2 oz",
          "ime": "Sirup od meda"
        },
        {
          "kolicina": "1 kom",
          "ime": "Grejpfrutova kora"
        }
      ],
      "broj_koraka": 4,
      "tip_case": "koktel"
    },
    {
      "id": 3,
      "naziv": "Uncle Angelo's eggnog",
      "img": "https://cdn.liquor.com/wp-content/uploads/2013/02/02111231/Uncle_Angelos_Eggnog-DT.jpg",
      "rejting": 4.9,
      "tezina": "tesko",
      "tip": "bourbon",
      "koraci": [
        {
          "opis": "Pripremiti sve neophodne sastojke",
          "vreme": 30
        },
        {
          "opis": "U veliku ciniju, izmutiti zumanca i pola cinije secera dok ne postanu svetlije boje.",
          "vreme": 120
        },
        {
          "opis": "Sipati mleko, slatku pavlaku, burbon i rum.",
          "vreme": 30
        },
        {
          "opis": "U posebnoj ciniji, izmutiti belanca sa ostatkom secera dok ne postanu cvrsta.",
          "vreme": 120
        },
        {
          "opis": "Dodati otprilike trecinu belanaca u deo sa zumancima.",
          "vreme": 40
        },
        {
          "opis": "Servirati u casi za panc ili caj.",
          "vreme": 20
        },
        {
          "opis": "Po ukusu dodati muskatni orascic i malo smese sa belancima.",
          "vreme": 30
        }
      ],
      "vreme_pripreme": 7,
      "sastojci": [
        {
          "kolicina": "6 kom",
          "ime": "Jaja, razdvojena"
        },
        {
          "kolicina": "200 gr",
          "ime": "Secer"
        },
        {
          "kolicina": "250 ml",
          "ime": "Mleko"
        },
        {
          "kolicina": "200 ml",
          "ime": "Slatka pavlaka"
        },
        {
          "kolicina": "8 oz",
          "ime": "Burbon"
        },
        {
          "kolicina": "4 oz",
          "ime": "Zacinjeni rum"
        },
        {
          "kolicina": "5 gr",
          "ime": "Muskatni orascic"
        }
      ],
      "broj_koraka": 7,
      "tip_case": "casa za punc ili caj"
    }
  ],
  "gin": [
    {
      "id": 1,
      "naziv": "Gimlet",
      "img": "https://cdn.liquor.com/wp-content/uploads/2017/04/18130019/gimlet-720x720-article.jpg",
      "rejting": 4.3,
      "tezina": "srednje",
      "tip": "gin",
      "koraci": [
        {
          "opis": "Pripremiti sve neophodne sastojke",
          "vreme": 30
        },
        {
          "opis": "Staviti sve sastojke u sejker i napuniti ledom.",
          "vreme": 25
        },
        {
          "opis": "Mesati i sipati u ohladjenu koktel casu napunjenu svezim ledom.",
          "vreme": 50
        },
        {
          "opis": "Ukrasiti kriskom limete.",
          "vreme": 30
        }
      ],
      "vreme_pripreme": 3,
      "sastojci": [
        {
          "kolicina": "2 1⁄2 oz",
          "ime": "Dzin"
        },
        {
          "kolicina": "1⁄2 oz",
          "ime": "Sok od limete"
        },
        {
          "kolicina": "1⁄2 oz",
          "ime": "Secerni sirup"
        },
        {
          "kolicina": "1 kom",
          "ime": "Kriska limete"
        }
      ],
      "broj_koraka": 4,
      "tip_case": "koktel"
    },
    {
      "id": 2,
      "naziv": "Aviation",
      "img": "https://cdn.liquor.com/wp-content/uploads/2016/07/14070101/aviation-720FB.jpg",
      "rejting": 2.6,
      "tezina": "lako",
      "tip": "gin",
      "koraci": [
        {
          "opis": "Pripremiti sve neophodne sastojke",
          "vreme": 30
        },
        {
          "opis": "Staviti sve sastojke u sejker i napuniti ledom.",
          "vreme": 30
        },
        {
          "opis": "Mesati i sipati u koktel casu.",
          "vreme": 50
        },
        {
          "opis": "Ukrasiti visnjom.",
          "vreme": 15
        }
      ],
      "vreme_pripreme": 3,
      "sastojci": [
        {
          "kolicina": "1 1⁄2 oz",
          "ime": "Maraschino liker"
        },
        {
          "kolicina": "2 oz",
          "ime": "Dzin"
        },
        {
          "kolicina": "1⁄4 oz",
          "ime": "Crème de violette"
        },
        {
          "kolicina": "3⁄4 oz",
          "ime": "Limunov sok"
        },
        {
          "kolicina": "1 kom",
          "ime": "Visnja"
        }
      ],
      "broj_koraka": 4,
      "tip_case": "koktel"
    },
    {
      "id": 3,
      "naziv": "Cannibal Corpse Reviver No.2",
      "img": "https://cdn.liquor.com/wp-content/uploads/2013/10/cannibal-corpse-reviver-no-2.jpg",
      "rejting": 3.8,
      "tezina": "srednje",
      "tip": "gin",
      "koraci": [
        {
          "opis": "Pripremiti sve neophodne sastojke",
          "vreme": 30
        },
        {
          "opis": "Sipati sve sastojke osim Prosseco-a u sejker i napuniti ledom.",
          "vreme": 25
        },
        {
          "opis": "Mesati i sipati u visoku casu napunjenu svezim ledom.",
          "vreme": 50
        },
        {
          "opis": "Preko svega dodati ohladjeni Prosecco i ukrasiti kriskom limuna.",
          "vreme": 40
        }
      ],
      "vreme_pripreme": 7,
      "sastojci": [
        {
          "kolicina": "1 1⁄2 oz",
          "ime": "Dzin"
        },
        {
          "kolicina": "1⁄2 oz",
          "ime": "Svez limunov sok"
        },
        {
          "kolicina": "1⁄2 oz",
          "ime": "Secerni sirup"
        },
        {
          "kolicina": "malo",
          "ime": "Brendi od kruske"
        },
        {
          "kolicina": "1 kasicica",
          "ime": "Fernet-Branca"
        },
        {
          "kolicina": "20 ml",
          "ime": "Prosecco"
        },
        {
          "kolicina": "1 kom",
          "ime": "Kriska limuna"
        }
      ],
      "broj_koraka": 4,
      "tip_case": "visoka casa"
    }
  ],
  "bloodymary": [
    {
      "id": 1,
      "naziv": "Classic Bloody Mary",
      "img": "https://cdn.liquor.com/wp-content/uploads/2017/09/01105541/classic-bloody-mary-720x720-recipe.jpg",
      "rejting": 3,
      "tezina": "tesko",
      "tip": "bloodymary",
      "koraci": [
        {
          "opis": "Sipati so na tacnu.",
          "vreme": 5
        },
        {
          "opis": "Preci limunom ili limentom duz ivice case.",
          "vreme": 7
        },
        {
          "opis": "Uvaljati ivicu case u so dok nije totalno prekrivena.",
          "vreme": 15
        },
        {
          "opis": "Staviti led u casu i ostaviti sa strane.",
          "vreme": 5
        },
        {
          "opis": "Dodati preostale sastojke i napuniti ledom.",
          "vreme": 30
        },
        {
          "opis": "Nezno protresti i sipati u pripremljenu casu.",
          "vreme": 45
        },
        {
          "opis": "Ukrasiti celerom i parcetom limontusa.",
          "vreme": 30
        }
      ],
      "vreme_pripreme": 5,
      "sastojci": [
        {
          "ime": "Parce limuna",
          "kolicina": "1"
        },
        {
          "ime": "Parce limontusa",
          "kolicina": "1"
        },
        {
          "ime": "Premium vodka",
          "kolicina": "2 oz"
        },
        {
          "ime": "Sok od paradajza",
          "kolicina": "4 oz"
        },
        {
          "ime": "Tobasko sos",
          "kolicina": "malo"
        },
        {
          "ime": "Ren",
          "kolicina": "2 kasicice"
        },
        {
          "ime": "Vorcestersajr sos",
          "kolicina": "malo"
        },
        {
          "ime": "So",
          "kolicina": "prstohvat"
        },
        {
          "ime": "Samlevena crna paprika",
          "kolicina": "prstohvat"
        },
        {
          "ime": "Dimljena paprika",
          "kolicina": "prstohvat"
        }
      ],
      "broj_koraka": 7,
      "tip_case": "duga"
    },
    {
      "id": 2,
      "naziv": "Bayou Bloody Mary",
      "img": "https://cdn.liquor.com/wp-content/uploads/2018/05/07111055/bayou-bloody-mary-720-720-recipe.jpg",
      "rejting": 4.1,
      "tezina": "lako",
      "tip": "bloodymary",
      "koraci": [
        {
          "opis": "Staviti sve sastojke u dugu casu i napuniti ledom.",
          "vreme": 45
        },
        {
          "opis": "Promesati i ukrasiti sa 4 graska, 2 masline i 4 riblja repa.",
          "vreme": 60
        }
      ],
      "vreme_pripreme": 3,
      "sastojci": [
        {
          "ime": "Vodka",
          "kolicina": "1.5 oz"
        },
        {
          "ime": "Sok od paradajza",
          "kolicina": "6 oz"
        },
        {
          "ime": "Tobasko sos",
          "kolicina": "6 oz"
        },
        {
          "ime": "Vorcestersajr sos",
          "kolicina": "3 kapi"
        },
        {
          "ime": "Ren",
          "kolicina": "prstohvat"
        },
        {
          "ime": "So",
          "kolicina": "prstohvat"
        },
        {
          "ime": "Samlevena crna paprika",
          "kolicina": "prstohvat"
        },
        {
          "ime": "Sok od limuna",
          "kolicina": "malo"
        }
      ],
      "broj_koraka": 3,
      "tip_case": "duga"
    },
    {
      "id": 3,
      "naziv": "Bloody Caesar Cocktail",
      "img": "https://cdn.liquor.com/wp-content/uploads/2012/06/30165010/bloody-caesar.jpeg",
      "rejting": 4.4,
      "tezina": "srednje",
      "tip": "bloodymary",
      "koraci": [
        {
          "opis": "Obloziti obod case solju, napuniti ledom i staviti sa strane.",
          "vreme": 60
        },
        {
          "opis": "Dodati preostale sastoje u casu za mesanje i napuniti ledom.",
          "vreme": 45
        },
        {
          "opis": "Presipavati iz jednu u drugu casu za mesanje par puta.",
          "vreme": 75
        },
        {
          "opis": "Sipati u spremljenu casu i ukrasiti celerom.",
          "vreme": 20
        }
      ],
      "vreme_pripreme": 7,
      "sastojci": [
        {
          "ime": "Vodka",
          "kolicina": "1.5 oz"
        },
        {
          "ime": "Clamato juice",
          "kolicina": "2 oz"
        },
        {
          "ime": "Gin",
          "kolicina": "4 oz"
        },
        {
          "ime": "Vorcestersajr sos",
          "kolicina": "malo"
        },
        {
          "ime": "Tobasko sos",
          "kolicina": "malo"
        },
        {
          "ime": "Ren",
          "kolicina": "po ukusu"
        }
      ],
      "broj_koraka": 3,
      "tip_case": "duga"
    }
  ],
  "shots": [
    {
      "id": 1,
      "naziv": "Tough to hear",
      "img": "https://cdn.liquor.com/wp-content/uploads/2013/02/27132051/fa-tough_to_hear.jpg",
      "rejting": 4.4,
      "tezina": "lako",
      "tip": "shots",
      "koraci": [
        {
          "opis": "Staviti sve sastojke u sejker i napuniti ledom.",
          "vreme": 30
        },
        {
          "opis": "Protresti i sipati u casu za sot.",
          "vreme": 45
        }
      ],
      "vreme_pripreme": 2,
      "sastojci": [
        {
          "ime": "Chile de arbol-infused St-Germain",
          "kolicina": "1 oz"
        },
        {
          "ime": "Leopold Brothers Absinthe Verte",
          "kolicina": "1 oz"
        },
        {
          "ime": "Sok od limontusa",
          "kolicina": "malo"
        }
      ],
      "broj_koraka": 2,
      "tip_case": "sot"
    },
    {
      "id": 2,
      "naziv": "Kamikaze",
      "img": "https://cdn.liquor.com/wp-content/uploads/2018/04/23143058/kamikaze-720x720-recipe.jpg",
      "rejting": 4.7,
      "tezina": "lako",
      "tip": "shots",
      "koraci": [
        {
          "opis": "Staviti sve sastojke u sejker sa ledom i tresti dok se sve ne ohladi.",
          "vreme": 45
        },
        {
          "opis": "Presipati u dve case.",
          "vreme": 60
        }
      ],
      "vreme_pripreme": 2,
      "sastojci": [
        {
          "ime": "Vodka",
          "kolicina": "2 oz"
        },
        {
          "ime": "Narandzasti liker",
          "kolicina": "0.75 oz"
        },
        {
          "ime": "Svez sok od limontusa",
          "kolicina": "0.75 oz"
        }
      ],
      "broj_koraka": 2,
      "tip_case": "sot"
    },
    {
      "id": 3,
      "naziv": "B 52",
      "img": "https://cdn.liquor.com/wp-content/uploads/2016/12/05144234/B52-shot-720sq.jpg",
      "rejting": 4.2,
      "tezina": "lako",
      "tip": "shots",
      "koraci": [
        {
          "opis": "Sipati tri sastojka u navedenom redosledu.",
          "vreme": 2
        }
      ],
      "vreme_pripreme": 1,
      "sastojci": [
        {
          "ime": "Kalua liker",
          "kolicina": "0.33 oz"
        },
        {
          "ime": "Baileys Irish cream liker",
          "kolicina": "0.33 oz"
        },
        {
          "ime": "Grand Mariner liker",
          "kolicina": "0.33 oz"
        }
      ],
      "broj_koraka": 1,
      "tip_case": "sot"
    }
  ],
  "margarita": [
    {
      "id": 1,
      "naziv": "Margarita",
      "img": "https://cdn.liquor.com/wp-content/uploads/2018/04/23134943/Margarita-720x720-recipe-v2.jpg",
      "rejting": 4,
      "tezina": "lako",
      "tip": "margarita",
      "koraci": [
        {
          "opis": "Sipati sve sastojke u sejker sa ledom i tresti dok se sve ne ohladi.",
          "vreme": 60
        },
        {
          "opis": "Sipati u pripremljenu siroku casu preko svezeg leda.",
          "vreme": 5
        },
        {
          "opis": "Opciono ukrasiti kolutom limontusa i solju.",
          "vreme": 15
        }
      ],
      "vreme_pripreme": 3,
      "sastojci": [
        {
          "ime": "Blanko tekila",
          "kolicina": "2 oz"
        },
        {
          "ime": "Sveze cedjen sok od limontusa",
          "kolicina": "1 oz"
        },
        {
          "ime": "Narandzasti liker",
          "kolicina": "0.5 oz"
        },
        {
          "ime": "Sirup od agave",
          "kolicina": "0.5 oz"
        }
      ],
      "broj_koraka": 3,
      "tip_case": "siroka"
    },
    {
      "id": 2,
      "naziv": "Lagerita",
      "img": "https://cdn.liquor.com/wp-content/uploads/2013/06/fa-Lagerita.jpg",
      "rejting": 3,
      "tezina": "srednje",
      "tip": "margarita",
      "koraci": [
        {
          "opis": "Opciono obloziti ivicu case solju, napuniti ledom i ostaviti sa strane.",
          "vreme": 20
        },
        {
          "opis": "Dodati tekilu, Kointro i sok limontusa u sejker i napuniti ledom.",
          "vreme": 30
        },
        {
          "opis": "Tresti i sipati u pripremljenu casu.",
          "vreme": 45
        },
        {
          "opis": "Dodati pivo i ukrasiti limontusom..",
          "vreme": 10
        }
      ],
      "vreme_pripreme": 5,
      "sastojci": [
        {
          "ime": "Kabeza tekila",
          "kolicina": "2 oz"
        },
        {
          "ime": "Kointro",
          "kolicina": "0.75 oz"
        },
        {
          "ime": "Sok od limontusa",
          "kolicina": "1 oz"
        },
        {
          "ime": "Modelo Especial pivo",
          "kolicina": "4 oz"
        }
      ],
      "broj_koraka": 4,
      "tip_case": "visoka pivska"
    },
    {
      "id": 3,
      "naziv": "Black Widow",
      "img": "https://cdn.liquor.com/wp-content/uploads/2010/11/30121530/black-widow.jpg",
      "rejting": 4.1,
      "tezina": "srednje",
      "tip": "margarita",
      "koraci": [
        {
          "opis": "Spljeskati bosiljak i kupinu u sejkeru.",
          "vreme": 30
        },
        {
          "opis": "Dodati ostale sastojke i napuniti ledom.",
          "vreme": 45
        },
        {
          "opis": "Dobro protresti i sipati u casu za martini bez drske.",
          "vreme": 60
        },
        {
          "opis": "Ukrasiti kupinom i listom bosiljka.",
          "vreme": 10
        }
      ],
      "vreme_pripreme": 5,
      "sastojci": [
        {
          "ime": "Kupine",
          "kolicina": "2"
        },
        {
          "ime": "List boisljka",
          "kolicina": "3"
        },
        {
          "ime": "Don Hulio blanko tekila",
          "kolicina": "1.5 oz"
        },
        {
          "ime": "Sveze cedjeni sok od limontusa",
          "kolicina": "1 oz"
        },
        {
          "ime": "Nektar agave",
          "kolicina": "1 kasicica"
        }
      ],
      "broj_koraka": 4,
      "tip_case": "za martini bez drske"
    }
  ],
  "punch": [
    {
      "id": 1,
      "naziv": "Classic rum-brandy cocktail",
      "img": "https://cdn.liquor.com/wp-content/uploads/2013/05/rum-brandy-punch.jpg",
      "rejting": 3.8,
      "tezina": "tesko",
      "tip": "punch",
      "koraci": [
        {
          "opis": "U posudi za panc od jednog galona spljeskati koru limuna sa secerom i ostaviti 3-4 sata pre pripreme.",
          "vreme": 30
        },
        {
          "opis": "Dodati sok od limuna i mesati dok se secer ne rastopi.",
          "vreme": 120
        },
        {
          "opis": "Dodati ostale sastojke i mesati dok se ne sjedine.",
          "vreme": 120
        },
        {
          "opis": "Stvatii kocku leda i ukrasiti sveze samlevenim orascicima.",
          "vreme": 30
        },
        {
          "opis": "Sipati u case za panc u porcijama od 3 unce.",
          "vreme": 45
        }
      ],
      "vreme_pripreme": 7,
      "sastojci": [
        {
          "ime": "Kore limuna",
          "kolicina": "4"
        },
        {
          "ime": "Fino usitnjen sirov secer",
          "kolicina": "1 solja"
        },
        {
          "ime": "Sok od limuna",
          "kolicina": "8 oz"
        },
        {
          "ime": "VSOP konjak ili armanjak",
          "kolicina": "24 oz"
        },
        {
          "ime": "Crni, jaki Jamaicanski rum",
          "kolicina": "8 oz"
        },
        {
          "ime": "Hladna voda",
          "kolicina": "40 oz"
        }
      ],
      "broj_koraka": 5,
      "tip_case": "panc"
    },
    {
      "id": 2,
      "naziv": "Oaxacan Punch",
      "img": "https://cdn.liquor.com/wp-content/uploads/2011/08/31124236/fa-oaxacan_punch.jpg",
      "rejting": 3.3,
      "tezina": "lako",
      "tip": "punch",
      "koraci": [
        {
          "opis": "Dodati sve sastojke u posudu za panc i napuniti ledom.",
          "vreme": 120
        },
        {
          "opis": "Ulepsati komadima grejpfruta i limuna.",
          "vreme": 30
        }
      ],
      "vreme_pripreme": 4,
      "sastojci": [
        {
          "ime": "Amaro Averna",
          "kolicina": "37.5 oz"
        },
        {
          "ime": "Sombra mezcal",
          "kolicina": "22.5 oz"
        },
        {
          "ime": "Svezi sok od grejpfruta",
          "kolicina": "15 oz"
        },
        {
          "ime": "Svezi sok od limuna",
          "kolicina": "15 oz"
        },
        {
          "ime": "Nektar agave",
          "kolicina": "7.5 oz"
        },
        {
          "ime": "Pivo od djumbira",
          "kolicina": "45 oz"
        },
        {
          "ime": "Hladna voda",
          "kolicina": "7.5 oz"
        }
      ],
      "broj_koraka": 2,
      "tip_case": "panc"
    },
    {
      "id": 3,
      "naziv": "Canadian punch",
      "img": "https://cdn.liquor.com/wp-content/uploads/2013/04/30115159/classic-holiday-punch-recipe.jpg",
      "rejting": 3.2,
      "tezina": "tesko",
      "tip": "punch",
      "koraci": [
        {
          "opis": "Sjediniti viski, rum, limun i ananas u posudu za panc i ostaviti najmanje 3 sata.",
          "vreme": 15
        },
        {
          "opis": "Rastopiti secer u vodi i sipati u mesavinu viskija.",
          "vreme": 30
        },
        {
          "opis": "Ohladiti najmanje pola sata pre serviranja.",
          "vreme": 75
        },
        {
          "opis": "Za serviranje, staviti vecu kocku i izrendati cetvrtinu orascica preko vrha.",
          "vreme": 45
        },
        {
          "opis": "Sipati u case za punc.",
          "vreme": 75
        }
      ],
      "vreme_pripreme": 10,
      "sastojci": [
        {
          "ime": "Viski od razi",
          "kolicina": "16 oz"
        },
        {
          "ime": "Smith & Cross Tradicionalni jamajcanski rum",
          "kolicina": "8 oz"
        },
        {
          "ime": "Limun",
          "kolicina": "3"
        },
        {
          "ime": "Ananas",
          "kolicina": "0.5"
        },
        {
          "ime": "Secer",
          "kolicina": "0.75 solje"
        },
        {
          "ime": "Voda",
          "kolicina": "5 casa"
        },
        {
          "ime": "Velika kocka leda",
          "kolicina": "1"
        }
      ],
      "broj_koraka": 5,
      "tip_case": "panc"
    }
  ],
  "champagne": [
    {
      "id": 1,
      "naziv": "Sparkler",
      "img": "https://cdn.liquor.com/wp-content/uploads/2011/05/Sparkler-newest1.jpg",
      "rejting": 3.5,
      "tezina": "lako",
      "tip": "champagne",
      "koraci": [
        {
          "opis": "Staviti sve sastojke u casu za sampanjac.",
          "vreme": 30
        },
        {
          "opis": "Ulepsati kriskom jagode.",
          "vreme": 30
        }
      ],
      "vreme_pripreme": 1,
      "sastojci": [
        {
          "ime": "Don Hulio blanko tekila",
          "kolicina": "1 oz"
        },
        {
          "ime": "Secerni sirup",
          "kolicina": "malo"
        },
        {
          "ime": "Sampanjac",
          "kolicina": "5 oz"
        }
      ],
      "broj_koraka": 2,
      "tip_case": "sampanjac"
    },
    {
      "id": 2,
      "naziv": "Koktel od sampanjca",
      "img": "https://cdn.liquor.com/wp-content/uploads/2013/11/15123337/champagne-cocktail-720-720-recipe.jpg",
      "rejting": 3.8,
      "tezina": "lako",
      "tip": "champagne",
      "koraci": [
        {
          "opis": "Staviti secerne kocke na kasiku i opasipati biterima.",
          "vreme": 30
        },
        {
          "opis": "Staviti u casu za sampanjac i napuniti sampanjcem.",
          "vreme": 45
        },
        {
          "opis": "Ulepsati limunom.",
          "vreme": 30
        }
      ],
      "vreme_pripreme": 2,
      "sastojci": [
        {
          "ime": "Kocka secera",
          "kolicina": "1"
        },
        {
          "ime": "Angostura bitters",
          "kolicina": "malo"
        },
        {
          "ime": "Sampanjac",
          "kolicina": "5 oz"
        }
      ],
      "broj_koraka": 3,
      "tip_case": "sampanjac"
    },
    {
      "id": 3,
      "naziv": "Moet Golden Glamour Cocktail",
      "img": "https://cdn.liquor.com/wp-content/uploads/2011/02/moet-golden-glamour.jpg",
      "rejting": 4.5,
      "tezina": "lako",
      "tip": "champagne",
      "koraci": [
        {
          "opis": "Staviti sve sastojke u casu.",
          "vreme": 30
        },
        {
          "opis": "Ulepsati svezom mentom.",
          "vreme": 30
        }
      ],
      "vreme_pripreme": 2,
      "sastojci": [
        {
          "ime": "Moet & Chandon Imperijalni Sampanjac",
          "kolicina": "4 oz"
        },
        {
          "ime": "Navan Vanilla Liker",
          "kolicina": "0.25 oz"
        },
        {
          "ime": "Sok voca strasti",
          "kolicina": "1.5 oz"
        }
      ],
      "broj_koraka": 2,
      "tip_case": "sampanjac"
    }
  ],
  "tequila": [
    {
      "id": 1,
      "naziv": "Tegroni",
      "img": "https://cdn.liquor.com/wp-content/uploads/2013/04/Tegroni.jpg",
      "rejting": 4.9,
      "tezina": "lako",
      "tip": "tequila",
      "koraci": [
        {
          "opis": "Dodaj sve elemente u casu za mesanje i napuniti ledom.",
          "vreme": 30
        },
        {
          "opis": "Promesati i sipati u siroku casu i napuniti svezim ledom.",
          "vreme": 60
        },
        {
          "opis": "Ulepsati grejpfrutom.",
          "vreme": 30
        }
      ],
      "vreme_pripreme": 4,
      "sastojci": [
        {
          "ime": "Blanko tekila",
          "kolicina": "1 oz"
        },
        {
          "ime": "Slatki vermut",
          "kolicina": "1 oz"
        },
        {
          "ime": "Kampari",
          "kolicina": "1 oz"
        }
      ],
      "broj_koraka": 3,
      "tip_case": "siroka"
    },
    {
      "id": 2,
      "naziv": "Herradura Tequila Mojito",
      "img": "https://cdn.liquor.com/wp-content/uploads/2010/09/23130001/herradura-tequila-mojito.jpg",
      "rejting": 4.3,
      "tezina": "srednje",
      "tip": "tequila",
      "koraci": [
        {
          "opis": "U sejkeru spljeskati liste mentola.",
          "vreme": 45
        },
        {
          "opis": "Dodati tekilu, sok od limontusa i nektar agave i napuniti ledom.",
          "vreme": 60
        },
        {
          "opis": "Protresti i sipati u kolins casu napunjenu svezim ledom.",
          "vreme": 45
        },
        {
          "opis": "Dodati kiselu vodu.",
          "vreme": 20
        }
      ],
      "vreme_pripreme": 4,
      "sastojci": [
        {
          "ime": "Lisce mentola",
          "kolicina": "4"
        },
        {
          "ime": "Heradura blanko tekila",
          "kolicina": "2 oz"
        },
        {
          "ime": "Heradura plavi agave nektar",
          "kolicina": "2=1 oz"
        },
        {
          "ime": "Sok od limontusa",
          "kolicina": "2 oz"
        },
        {
          "ime": "Kisela voda",
          "kolicina": "2 oz"
        }
      ],
      "broj_koraka": 4,
      "tip_case": "kolins"
    },
    {
      "id": 3,
      "naziv": "Spiced Chocolate Cocktail",
      "img": "https://cdn.liquor.com/wp-content/uploads/2012/07/01142820/Spiced-Chocolate-newest.jpg",
      "rejting": 4.2,
      "tezina": "lako",
      "tip": "tequila",
      "koraci": [
        {
          "opis": "Dodati sve sastojke u sejker osim slaga i napuniti ledom.",
          "vreme": 45
        },
        {
          "opis": "Protresti i sipati u ohladjenu casu.",
          "vreme": 30
        },
        {
          "opis": "Na vrh dodati sloj slaga i ulepsati prstohvatom aleve paprike.",
          "vreme": 60
        }
      ],
      "vreme_pripreme": 3,
      "sastojci": [
        {
          "ime": "Patron XO Cafe liker",
          "kolicina": "1 oz"
        },
        {
          "ime": "Patron Reposado tekila",
          "kolicina": "1.5 oz"
        },
        {
          "ime": "Liker od crne cokolade",
          "kolicina": "0.75 oz"
        },
        {
          "ime": "Slag",
          "kolicina": "po zelji"
        }
      ],
      "broj_koraka": 3,
      "tip_case": "staromodna"
    }
  ]
}